﻿ID,Loại,Mã sản phẩm,Tên,Đã đăng,Nhãn nổi bật?,Hiển thị trong danh mục,Mô tả ngắn,Mô tả,Ngày bắt đầu giảm giá,Ngày kết thúc giảm giá,Trạng thái thuế,Lớp thuế,Còn hàng?,Kho,Cho phép đặt trước?,Bán riêng?,Cân nặng (kg),Độ dài (cm),Độ rộng (cm),Chiều cao (cm),Cho phép đánh giá của khách hàng?,Ghi chú thanh toán,Giá khuyến mãi,Giá bán thường,Danh mục,Từ khóa,Lớp giao hàng,Hình ảnh,Giới hạn tải xuống,Ngày hết hạn tải về,Gốc,Các sản phẩm theo nhóm,Upsells,Bán chéo,URL ngoài,Nội dung nút bấm,Vị trí
1241,simple,sinhtovietquat,Sinh tố việt quất,1,0,visible,,,,,taxable,,1,,0,0,,,,,1,,,29000,Sinh tố,"sinh tố, sinh to",,http://localhost/wordpress/wp-content/uploads/2018/menu/sinhto_vietquat.jpg,,,,,,,,,0
1255,simple,sinhtosaurieng,Sinh tố sầu riêng,1,0,visible,,,,,taxable,,1,,0,0,,,,,1,,,35000,Sinh tố,"sinh tố, sinh to",,http://localhost/wordpress/wp-content/uploads/2018/menu/sinhto_saurieng.jpg,,,,,,,,,0
1256,simple,snhtomit,Sinh tố mít,1,0,visible,,,,,taxable,,1,,0,0,,,,,1,,,29000,Sinh tố,"sinh tố, sinh to",,http://localhost/wordpress/wp-content/uploads/2018/menu/sinhto_mit.jpg,,,,,,,,,0
1259,simple,sinhtodau,Sinh tố dâu,1,0,visible,,,,,taxable,,1,,0,0,,,,,1,,,35000,Sinh tố,"sinh tố, sinh to",,http://localhost/wordpress/wp-content/uploads/2018/menu/sinhto_dau.jpg,,,,,,,,,0
1260,simple,sinhtobido,Sinh tố bí đỏ,1,0,visible,,,,,taxable,,1,,0,0,,,,,1,,,29000,Sinh tố,"sinh tố, sinh to",,http://localhost/wordpress/wp-content/uploads/2018/menu/sinhto_bido.jpg,,,,,,,,,0
1261,simple,sinhtoxoai,Sinh tố xoài,1,0,visible,,,,,taxable,,1,,0,0,,,,,1,,,29000,Sinh tố,"sinh tố, sinh to",,http://localhost/wordpress/wp-content/uploads/2018/menu/sinhto_xoai.jpg,,,,,,,,,0
1262,simple,sinhtosapoche,Sinh tố sapoche,1,0,visible,,,,,taxable,,1,,0,0,,,,,1,,,29000,Sinh tố,"sinh tố, sinh to",,http://localhost/wordpress/wp-content/uploads/2018/menu/sinhto_sapoche.jpg,,,,,,,,,0
1265,simple,sinhtoduagang,Sinh tố dưa gang,1,0,visible,,,,,taxable,,1,,0,0,,,,,1,,,29000,Sinh tố,"sinh tố, sinh to",,http://localhost/wordpress/wp-content/uploads/2018/menu/sinhto_duagang.jpg,,,,,,,,,0
1267,simple,sinhtomangcau,Sinh tố mãng cầu,1,0,visible,,,,,taxable,,1,,0,0,,,,,1,,,29000,Sinh tố,"sinh tố, sinh to",,http://localhost/wordpress/wp-content/uploads/2018/menu/sinhto_mangcau.jpg,,,,,,,,,0
1268,simple,sinhtochuoi,Sinh tố chuối,1,0,visible,,,,,taxable,,1,,0,0,,,,,1,,,25000,Sinh tố,"sinh tố, sinh to",,http://localhost/wordpress/wp-content/uploads/2018/menu/sinhto_chuoi.jpg,,,,,,,,,0
1269,simple,sinhtothanhlong,Sinh tố thanh long,1,0,visible,,,,,taxable,,1,,0,0,,,,,1,,,25000,Sinh tố,"sinh tố, sinh to",,http://localhost/wordpress/wp-content/uploads/2018/menu/sinhto_thanhlong.jpg,,,,,,,,,0
1271,simple,sinhtocachua,Sinh tố cà chua,1,0,visible,,,,,taxable,,1,,0,0,,,,,1,,,25000,Sinh tố,"sinh tố, sinh to",,http://localhost/wordpress/wp-content/uploads/2018/menu/sinhto_cachua.jpg,,,,,,,,,0
1272,simple,sinhtobo,Sinh tố bơ,1,0,visible,,,,,taxable,,1,,0,0,,,,,1,,,35000,Sinh tố,"sinh tố, sinh to",,http://localhost/wordpress/wp-content/uploads/2018/menu/sinhto_bo.jpg,,,,,,,,,0
1779,simple,sinhtodudu,Sinh tố đu đủ,1,0,visible,,,,,taxable,,1,,0,0,,,,,1,,,25000,Sinh tố,"sinh tố, sinh to",,http://localhost/wordpress/wp-content/uploads/2018/menu/sinhto_dudu.jpg,,,,,,,,,0
1780,simple,sinhtobodauxanh,Sinh tố bơ đậu xanh,1,0,visible,,,,,taxable,,1,,0,0,,,,,1,,,39000,Sinh tố đặc biệt,"sinh tố, sinh to, sinh to dac biet",,http://localhost/wordpress/wp-content/uploads/2018/menu/sinhto_bo.jpg,,,,,,,,,0
1781,simple,sinhtobosauring,Sinh tố bơ sầu riêng,1,0,visible,,,,,taxable,,1,,0,0,,,,,1,,,39000,Sinh tố đặc biệt,"sinh tố, sinh to, sinh to dac biet",,http://localhost/wordpress/wp-content/uploads/2018/menu/sinhto_bo.jpg,,,,,,,,,0
1782,simple,sinhtoboxoai,Sinh tố bơ xoài,1,0,visible,,,,,taxable,,1,,0,0,,,,,1,,,39000,Sinh tố đặc biệt,"sinh tố, sinh to, sinh to dac biet",,http://localhost/wordpress/wp-content/uploads/2018/menu/sinhto_bo.jpg,,,,,,,,,0
1783,simple,sinhtobochuoi,Sinh tố bơ chuối,1,0,visible,,,,,taxable,,1,,0,0,,,,,1,,,39000,Sinh tố đặc biệt,"sinh tố, sinh to, sinh to dac biet",,http://localhost/wordpress/wp-content/uploads/2018/menu/sinhto_bo.jpg,,,,,,,,,0
1784,simple,sinhtobomangcau,Sinh tố bơ mãng cầu,1,0,visible,,,,,taxable,,1,,0,0,,,,,1,,,39000,Sinh tố đặc biệt,"sinh tố, sinh to, sinh to dac biet",,http://localhost/wordpress/wp-content/uploads/2018/menu/sinhto_bo.jpg,,,,,,,,,0
1785,simple,sinhtobocafe,Sinh tố bơ cafe,1,0,visible,,,,,taxable,,1,,0,0,,,,,1,,,39000,Sinh tố đặc biệt,"sinh tố, sinh to, sinh to dac biet",,http://localhost/wordpress/wp-content/uploads/2018/menu/sinhto_bo.jpg,,,,,,,,,0
1786,simple,sinhtobovietquat,Sinh tố bơ việt quất,1,0,visible,,,,,taxable,,1,,0,0,,,,,1,,,39000,Sinh tố đặc biệt,"sinh tố, sinh to, sinh to dac biet",,http://localhost/wordpress/wp-content/uploads/2018/menu/sinhto_bo.jpg,,,,,,,,,0
1787,simple,sinhtodaucam,Sinh tố dâu cam,1,0,visible,,,,,taxable,,1,,0,0,,,,,1,,,35000,Sinh tố đặc biệt,"sinh tố, sinh to, sinh to dac biet",,http://localhost/wordpress/wp-content/uploads/2018/menu/sinhto_dau.jpg,,,,,,,,,0
1788,simple,sinhtodauthom,Sinh tố dâu thơm,1,0,visible,,,,,taxable,,1,,0,0,,,,,1,,,35000,Sinh tố đặc biệt,"sinh tố, sinh to, sinh to dac biet",,http://localhost/wordpress/wp-content/uploads/2018/menu/sinhto_dau.jpg,,,,,,,,,0
1789,simple,sinhtodauchuoi,Sinh tố dâu chuối,1,0,visible,,,,,taxable,,1,,0,0,,,,,1,,,35000,Sinh tố đặc biệt,"sinh tố, sinh to, sinh to dac biet",,http://localhost/wordpress/wp-content/uploads/2018/menu/sinhto_dau.jpg,,,,,,,,,0
1790,simple,sinhtodauxoai,Sinh tố dâu xoài,1,0,visible,,,,,taxable,,1,,0,0,,,,,1,,,35000,Sinh tố đặc biệt,"sinh tố, sinh to, sinh to dac biet",,http://localhost/wordpress/wp-content/uploads/2018/menu/sinhto_dau.jpg,,,,,,,,,0
1791,simple,sinhtotaochuoi,Sinh tố táo chuối,1,0,visible,,,,,taxable,,1,,0,0,,,,,1,,,35000,Sinh tố đặc biệt,"sinh tố, sinh to, sinh to dac biet",,http://localhost/wordpress/wp-content/uploads/2018/menu/sinhto_chuoi.jpg,,,,,,,,,0
1792,simple,sinhtotaovietquat,Sinh tố táo việt quất,1,0,visible,,,,,taxable,,1,,0,0,,,,,1,,,35000,Sinh tố đặc biệt,"sinh tố, sinh to, sinh to dac biet",,http://localhost/wordpress/wp-content/uploads/2018/menu/sinhto_vietquat.jpg,,,,,,,,,0
1793,simple,sinhtosauriengcafe, Sinh tố sầu riêng café,1,0,visible,,,,,taxable,,1,,0,0,,,,,1,,,35000,Sinh tố đặc biệt,"sinh tố, sinh to, sinh to dac biet",,http://localhost/wordpress/wp-content/uploads/2018/menu/sinhto_saurieng.jpg,,,,,,,,,0
1794,simple,sinhtosapochecafe,Sinh tố Sapoche café,1,0,visible,,,,,taxable,,1,,0,0,,,,,1,,,35000,Sinh tố đặc biệt,"sinh tố, sinh to, sinh to dac biet",,http://localhost/wordpress/wp-content/uploads/2018/menu/sinhto_sapoche.jpg,,,,,,,,,0
1795,simple,sinhtovietquatcam,Sinh tố Việt quất cam,1,0,visible,,,,,taxable,,1,,0,0,,,,,1,,,35000,Sinh tố đặc biệt,"sinh tố, sinh to, sinh to dac biet",,http://localhost/wordpress/wp-content/uploads/2018/menu/sinhto_vietquat.jpg,,,,,,,,,0
1796,simple,sinhtovietquatdau,Sinh tố việt quất dâu,1,0,visible,,,,,taxable,,1,,0,0,,,,,1,,,35000,Sinh tố đặc biệt,"sinh tố, sinh to, sinh to dac biet",,http://localhost/wordpress/wp-content/uploads/2018/menu/sinhto_dau.jpg,,,,,,,,,0
1797,simple,sinhtomangcaudau,Sinh tố mãng cầu dâu,1,0,visible,,,,,taxable,,1,,0,0,,,,,1,,,35000,Sinh tố đặc biệt,"sinh tố, sinh to, sinh to dac biet",,http://localhost/wordpress/wp-content/uploads/2018/menu/sinhto_mangcau.jpg,,,,,,,,,0
1798,simple,sinhtomangcaudausaurieng,Sinh tố mãng cầu dâu sầu riêng,1,0,visible,,,,,taxable,,1,,0,0,,,,,1,,,35000,Sinh tố đặc biệt,"sinh tố, sinh to, sinh to dac biet",,http://localhost/wordpress/wp-content/uploads/2018/menu/sinhto_mangcau.jpg,,,,,,,,,0
1799,simple,sinhtovietquatdauxoai,sinh tố việt quất dâu xoài,1,0,visible,,,,,taxable,,1,,0,0,,,,,1,,,35000,Sinh tố đặc biệt,"sinh tố, sinh to, sinh to dac biet",,http://localhost/wordpress/wp-content/uploads/2018/menu/sinhto_vietquat.jpg,,,,,,,,,0
1800,simple,sinhtodaucamthom,sinh tố dâu cam thơm,1,0,visible,,,,,taxable,,1,,0,0,,,,,1,,,35000,Sinh tố đặc biệt,"sinh tố, sinh to, sinh to dac biet",,http://localhost/wordpress/wp-content/uploads/2018/menu/sinhto_dau.jpg,,,,,,,,,0
1801,simple,sinhtotaocamchuoi,sinh tố táo cam chuối,1,0,visible,,,,,taxable,,1,,0,0,,,,,1,,,35000,Sinh tố đặc biệt,"sinh tố, sinh to, sinh to dac biet",,http://localhost/wordpress/wp-content/uploads/2018/menu/sinhto_tao.jpg,,,,,,,,,0
1802,simple,sinhtoxoaicamchuoi,Sinh tố xoài cam chuối,1,0,visible,,,,,taxable,,1,,0,0,,,,,1,,,35000,Sinh tố đặc biệt,"sinh tố, sinh to, sinh to dac biet",,http://localhost/wordpress/wp-content/uploads/2018/menu/sinhto_xoai.jpg,,,,,,,,,0
1803,simple,sinhtoxoaisapochechuoi,Sinh tố xoài sapoche chuối,1,0,visible,,,,,taxable,,1,,0,0,,,,,1,,,35000,Sinh tố đặc biệt,"sinh tố, sinh to, sinh to dac biet",,http://localhost/wordpress/wp-content/uploads/2018/menu/sinhto_xoai.jpg,,,,,,,,,0
1804,simple,sinhtosapochechuoithanhlong,Sinh tố sapoche chuối thanh long,1,0,visible,,,,,taxable,,1,,0,0,,,,,1,,,35000,Sinh tố đặc biệt,"sinh tố, sinh to, sinh to dac biet",,http://localhost/wordpress/wp-content/uploads/2018/menu/sinhto_chuoi.jpg,,,,,,,,,0
1805,simple,sinhtodauxoaichanhday,Sinh tố dâu xoài chanh dây,1,0,visible,,,,,taxable,,1,,0,0,,,,,1,,,35000,Sinh tố đặc biệt,"sinh tố, sinh to, sinh to dac biet",,http://localhost/wordpress/wp-content/uploads/2018/menu/sinhto_chanhday.jpg,,,,,,,,,0
