﻿ID,Loại,"Mã sản phẩm",Tên,"Đã đăng","Nhãn nổi bật?","Hiển thị trong danh mục","Mô tả ngắn","Mô tả","Ngày bắt đầu giảm giá","Ngày kết thúc giảm giá","Trạng thái thuế","Lớp thuế","Còn hàng?",Kho,"Cho phép đặt trước?","Bán riêng?","Cân nặng (kg)","Độ dài (cm)","Độ rộng (cm)","Chiều cao (cm)","Cho phép đánh giá của khách hàng?","Ghi chú thanh toán","Giá khuyến mãi","Giá bán thường","Danh mục","Từ khóa","Lớp giao hàng","Hình ảnh","Giới hạn tải xuống","Ngày hết hạn tải về",Gốc,"Các sản phẩm theo nhóm",Upsells,"Bán chéo","URL ngoài","Nội dung nút bấm","Vị trí"
1241,simple,,"Sinh tố việt quất",1,0,visible,"Ut wisi enim ad minim veniam, quis nostrud exerci tation ullamcorper suscipit lobortis nisl ut aliquip ex ea commodo consequat. Duis autem vel eum iriure dolor in hendrerit in vulputate velit esse molestie conse quat, vel illum dolore eu feugiat nulla facilisis at vero eros.","Lorem ipsum dolor sit amet, consectetuer adipiscing elit, sed diam nonummy nibh euismod tincidunt ut laoreet dolore magna aliquam erat volutpat. Ut wisi enim ad minim veniam, quis nostrud exerci tation ullamcorper suscipit lobortis nisl ut aliquip ex ea commodo consequat. Duis autem vel eum iriure dolor in hendrerit in vulputate velit esse molestie consequat, vel illum dolore eu feugiat nulla facilisis at vero eros et accumsan et iusto odio dignissim qui blandit praesent luptatum zzril delenit augue duis dolore te feugait nulla facilisi.",,,taxable,,1,,0,0,,,,,1,,,29000,"Sinh tố","drink, food, healthy",,http://localhost/wordpress/wp-content/uploads/2016/03/bowl1.jpg,,,,,,,,,0
1255,simple,,"Sinh tố sầu riêng",1,0,visible,"Ut wisi enim ad minim veniam, quis nostrud exerci tation ullamcorper suscipit lobortis nisl ut aliquip ex ea commodo consequat. Duis autem vel eum iriure dolor in hendrerit in vulputate velit esse molestie conse quat, vel illum dolore eu feugiat nulla facilisis at vero eros.","Lorem ipsum dolor sit amet, consectetuer adipiscing elit, sed diam nonummy nibh euismod tincidunt ut laoreet dolore magna aliquam erat volutpat. Ut wisi enim ad minim veniam, quis nostrud exerci tation ullamcorper suscipit lobortis nisl ut aliquip ex ea commodo consequat. Duis autem vel eum iriure dolor in hendrerit in vulputate velit esse molestie consequat, vel illum dolore eu feugiat nulla facilisis at vero eros et accumsan et iusto odio dignissim qui blandit praesent luptatum zzril delenit augue duis dolore te feugait nulla facilisi.",,,taxable,,1,,0,0,,,,,1,,,35000,"Sinh tố","drink, food, healthy",,http://localhost/wordpress/wp-content/uploads/2016/03/bowl2.jpg,,,,,,,,,0
1256,simple,,"Sinh tố mít",1,0,visible,"Ut wisi enim ad minim veniam, quis nostrud exerci tation ullamcorper suscipit lobortis nisl ut aliquip ex ea commodo consequat. Duis autem vel eum iriure dolor in hendrerit in vulputate velit esse molestie conse quat, vel illum dolore eu feugiat nulla facilisis at vero eros.","Lorem ipsum dolor sit amet, consectetuer adipiscing elit, sed diam nonummy nibh euismod tincidunt ut laoreet dolore magna aliquam erat volutpat. Ut wisi enim ad minim veniam, quis nostrud exerci tation ullamcorper suscipit lobortis nisl ut aliquip ex ea commodo consequat. Duis autem vel eum iriure dolor in hendrerit in vulputate velit esse molestie consequat, vel illum dolore eu feugiat nulla facilisis at vero eros et accumsan et iusto odio dignissim qui blandit praesent luptatum zzril delenit augue duis dolore te feugait nulla facilisi.",,,taxable,,1,,0,0,,,,,1,,,29000,"Sinh tố","drink, food, healthy",,http://localhost/wordpress/wp-content/uploads/2016/03/bowl3.jpg,,,,,,,,,0
1259,simple,,"Sinh tố dâu",1,0,visible,"Ut wisi enim ad minim veniam, quis nostrud exerci tation ullamcorper suscipit lobortis nisl ut aliquip ex ea commodo consequat. Duis autem vel eum iriure dolor in hendrerit in vulputate velit esse molestie conse quat, vel illum dolore eu feugiat nulla facilisis at vero eros.","Lorem ipsum dolor sit amet, consectetuer adipiscing elit, sed diam nonummy nibh euismod tincidunt ut laoreet dolore magna aliquam erat volutpat. Ut wisi enim ad minim veniam, quis nostrud exerci tation ullamcorper suscipit lobortis nisl ut aliquip ex ea commodo consequat. Duis autem vel eum iriure dolor in hendrerit in vulputate velit esse molestie consequat, vel illum dolore eu feugiat nulla facilisis at vero eros et accumsan et iusto odio dignissim qui blandit praesent luptatum zzril delenit augue duis dolore te feugait nulla facilisi.",,,taxable,,1,,0,0,,,,,1,,,35000,"Sinh tố","drink, food, healthy",,http://localhost/wordpress/wp-content/uploads/2016/03/bowl4.jpg,,,,,,,,,0
1260,simple,,"Sinh tố bí đỏ",1,0,visible,"Ut wisi enim ad minim veniam, quis nostrud exerci tation ullamcorper suscipit lobortis nisl ut aliquip ex ea commodo consequat. Duis autem vel eum iriure dolor in hendrerit in vulputate velit esse molestie conse quat, vel illum dolore eu feugiat nulla facilisis at vero eros.","[vc_row][vc_column][vc_column_text]Lorem ipsum dolor sit amet, consectetuer adipiscing elit, sed diam nonummy nibh euismod tincidunt ut laoreet dolore magna aliquam erat volutpat. Ut wisi enim ad minim veniam, quis nostrud exerci tation ullamcorper suscipit lobortis nisl ut aliquip ex ea commodo consequat. Duis autem vel eum iriure dolor in hendrerit in vulputate velit esse molestie consequat, vel illum dolore eu feugiat nulla facilisis at vero eros et accumsan et iusto odio dignissim qui blandit praesent luptatum zzril delenit augue duis dolore te feugait nulla facilisi.[/vc_column_text][/vc_column][/vc_row]",,,taxable,,1,,0,0,,,,,1,,,29000,"Sinh tố","drink, food, healthy",,http://localhost/wordpress/wp-content/uploads/2016/03/bowl5.jpg,,,,,,,,,0
1261,simple,,"Sinh tố xoài",1,0,visible,"Ut wisi enim ad minim veniam, quis nostrud exerci tation ullamcorper suscipit lobortis nisl ut aliquip ex ea commodo consequat. Duis autem vel eum iriure dolor in hendrerit in vulputate velit esse molestie conse quat, vel illum dolore eu feugiat nulla facilisis at vero eros.","Lorem ipsum dolor sit amet, consectetuer adipiscing elit, sed diam nonummy nibh euismod tincidunt ut laoreet dolore magna aliquam erat volutpat. Ut wisi enim ad minim veniam, quis nostrud exerci tation ullamcorper suscipit lobortis nisl ut aliquip ex ea commodo consequat. Duis autem vel eum iriure dolor in hendrerit in vulputate velit esse molestie consequat, vel illum dolore eu feugiat nulla facilisis at vero eros et accumsan et iusto odio dignissim qui blandit praesent luptatum zzril delenit augue duis dolore te feugait nulla facilisi.",,,taxable,,1,,0,0,,,,,1,,,29000,"Sinh tố","drink, food, healthy",,http://localhost/wordpress/wp-content/uploads/2016/03/juice1.jpg,,,,,,,,,0
1262,simple,,"Sinh tố sapoche",1,0,visible,"Ut wisi enim ad minim veniam, quis nostrud exerci tation ullamcorper suscipit lobortis nisl ut aliquip ex ea commodo consequat. Duis autem vel eum iriure dolor in hendrerit in vulputate velit esse molestie conse quat, vel illum dolore eu feugiat nulla facilisis at vero eros.","Lorem ipsum dolor sit amet, consectetuer adipiscing elit, sed diam nonummy nibh euismod tincidunt ut laoreet dolore magna aliquam erat volutpat. Ut wisi enim ad minim veniam, quis nostrud exerci tation ullamcorper suscipit lobortis nisl ut aliquip ex ea commodo consequat. Duis autem vel eum iriure dolor in hendrerit in vulputate velit esse molestie consequat, vel illum dolore eu feugiat nulla facilisis at vero eros et accumsan et iusto odio dignissim qui blandit praesent luptatum zzril delenit augue duis dolore te feugait nulla facilisi.",,,taxable,,1,,0,0,,,,,1,,,29000,"Sinh tố","drink, food, healthy",,http://localhost/wordpress/wp-content/uploads/2016/03/juice2.jpg,,,,,,,,,0
1265,simple,,"Sinh tố dưa gang",1,0,visible,"Ut wisi enim ad minim veniam, quis nostrud exerci tation ullamcorper suscipit lobortis nisl ut aliquip ex ea commodo consequat. Duis autem vel eum iriure dolor in hendrerit in vulputate velit esse molestie conse quat, vel illum dolore eu feugiat nulla facilisis at vero eros.","Lorem ipsum dolor sit amet, consectetuer adipiscing elit, sed diam nonummy nibh euismod tincidunt ut laoreet dolore magna aliquam erat volutpat. Ut wisi enim ad minim veniam, quis nostrud exerci tation ullamcorper suscipit lobortis nisl ut aliquip ex ea commodo consequat. Duis autem vel eum iriure dolor in hendrerit in vulputate velit esse molestie consequat, vel illum dolore eu feugiat nulla facilisis at vero eros et accumsan et iusto odio dignissim qui blandit praesent luptatum zzril delenit augue duis dolore te feugait nulla facilisi.",,,taxable,,1,,0,0,,,,,1,,,29000,"Sinh tố","drink, food, healthy",,http://localhost/wordpress/wp-content/uploads/2016/03/juice3.jpg,,,,,,,,,0
1267,simple,,"Sinh tố mãng cầu",1,0,visible,"Ut wisi enim ad minim veniam, quis nostrud exerci tation ullamcorper suscipit lobortis nisl ut aliquip ex ea commodo consequat. Duis autem vel eum iriure dolor in hendrerit in vulputate velit esse molestie conse quat, vel illum dolore eu feugiat nulla facilisis at vero eros.",,,,taxable,,1,,0,0,,,,,1,,,29000,"Sinh tố","drink, healthy",,http://localhost/wordpress/wp-content/uploads/2016/03/sinhto_bo-1.jpg,,,,,,,,,0
1268,simple,,"Sinh tố chuối",1,0,visible,"Ut wisi enim ad minim veniam, quis nostrud exerci tation ullamcorper suscipit lobortis nisl ut aliquip ex ea commodo consequat. Duis autem vel eum iriure dolor in hendrerit in vulputate velit esse molestie conse quat, vel illum dolore eu feugiat nulla facilisis at vero eros.","Lorem ipsum dolor sit amet, consectetuer adipiscing elit, sed diam nonummy nibh euismod tincidunt ut laoreet dolore magna aliquam erat volutpat. Ut wisi enim ad minim veniam, quis nostrud exerci tation ullamcorper suscipit lobortis nisl ut aliquip ex ea commodo consequat. Duis autem vel eum iriure dolor in hendrerit in vulputate velit esse molestie consequat, vel illum dolore eu feugiat nulla facilisis at vero eros et accumsan et iusto odio dignissim qui blandit praesent luptatum zzril delenit augue duis dolore te feugait nulla facilisi.",,,taxable,,1,,0,0,,,,,1,,,25000,"Sinh tố","drink, food, healthy",,http://localhost/wordpress/wp-content/uploads/2016/03/smoothie1.jpg,,,,,,,,,0
1269,simple,,"Sinh tố thanh long",1,0,visible,"Ut wisi enim ad minim veniam, quis nostrud exerci tation ullamcorper suscipit lobortis nisl ut aliquip ex ea commodo consequat. Duis autem vel eum iriure dolor in hendrerit in vulputate velit esse molestie conse quat, vel illum dolore eu feugiat nulla facilisis at vero eros.","Lorem ipsum dolor sit amet, consectetuer adipiscing elit, sed diam nonummy nibh euismod tincidunt ut laoreet dolore magna aliquam erat volutpat. Ut wisi enim ad minim veniam, quis nostrud exerci tation ullamcorper suscipit lobortis nisl ut aliquip ex ea commodo consequat. Duis autem vel eum iriure dolor in hendrerit in vulputate velit esse molestie consequat, vel illum dolore eu feugiat nulla facilisis at vero eros et accumsan et iusto odio dignissim qui blandit praesent luptatum zzril delenit augue duis dolore te feugait nulla facilisi.",,,taxable,,1,,0,0,,,,,1,,,25000,"Sinh tố","drink, food, healthy",,http://localhost/wordpress/wp-content/uploads/2016/03/smoothie3.jpg,,,,,,,,,0
1271,simple,,"Sinh tố cà chua",1,0,visible,"Ut wisi enim ad minim veniam, quis nostrud exerci tation ullamcorper suscipit lobortis nisl ut aliquip ex ea commodo consequat. Duis autem vel eum iriure dolor in hendrerit in vulputate velit esse molestie conse quat, vel illum dolore eu feugiat nulla facilisis at vero eros.","Lorem ipsum dolor sit amet, consectetuer adipiscing elit, sed diam nonummy nibh euismod tincidunt ut laoreet dolore magna aliquam erat volutpat. Ut wisi enim ad minim veniam, quis nostrud exerci tation ullamcorper suscipit lobortis nisl ut aliquip ex ea commodo consequat. Duis autem vel eum iriure dolor in hendrerit in vulputate velit esse molestie consequat, vel illum dolore eu feugiat nulla facilisis at vero eros et accumsan et iusto odio dignissim qui blandit praesent luptatum zzril delenit augue duis dolore te feugait nulla facilisi.",,,taxable,,1,,0,0,,,,,1,,,25000,"Sinh tố","drink, healthy",,http://localhost/wordpress/wp-content/uploads/2016/03/smoothie2.jpg,,,,,,,,,0
1272,simple,,"Sinh tố bơ",1,0,visible,,,,,taxable,,1,,0,0,,,,,1,,,35000,"Sinh tố","drink, food, healthy",,http://localhost/wordpress/wp-content/uploads/2016/03/sinhto_bo-1.jpg,,,,,,,,,0
1779,simple,,"Sinh tố đu đủ",1,0,visible,,,,,taxable,,1,,0,0,,,,,1,,,25000,"Sinh tố",,,,,,,,,,,,0
1780,simple,,"Sinh tố bơ đậu xanh",1,0,visible,,,,,taxable,,1,,0,0,,,,,1,,,39000,"Sinh tố đặc biệt","drink, food, healthy",,http://localhost/wordpress/wp-content/uploads/2016/03/sinhto_bo-1.jpg,,,,,,,,,0
1781,simple,,"Sinh tố bơ sầu riêng",1,0,visible,,,,,taxable,,1,,0,0,,,,,1,,,39000,"Sinh tố đặc biệt","drink, food, healthy",,http://localhost/wordpress/wp-content/uploads/2016/03/sinhto_bo-1.jpg,,,,,,,,,0
1782,simple,,"Sinh tố bơ xoài",1,0,visible,,,,,taxable,,1,,0,0,,,,,1,,,39000,"Sinh tố đặc biệt","drink, food, healthy",,http://localhost/wordpress/wp-content/uploads/2016/03/sinhto_bo-1.jpg,,,,,,,,,0
1783,simple,,"Sinh tố bơ chuối",1,0,visible,,,,,taxable,,1,,0,0,,,,,1,,,39000,"Sinh tố đặc biệt","drink, food, healthy",,http://localhost/wordpress/wp-content/uploads/2016/03/sinhto_bo-1.jpg,,,,,,,,,0
1784,simple,,"Sinh tố bơ mãng cầu",1,0,visible,,,,,taxable,,1,,0,0,,,,,1,,,39000,"Sinh tố đặc biệt","drink, food, healthy",,http://localhost/wordpress/wp-content/uploads/2016/03/sinhto_bo-1.jpg,,,,,,,,,0
1785,simple,,"Sinh tố bơ cafe",1,0,visible,,,,,taxable,,1,,0,0,,,,,1,,,39000,"Sinh tố đặc biệt","drink, food, healthy",,http://localhost/wordpress/wp-content/uploads/2016/03/sinhto_bo-1.jpg,,,,,,,,,0
1786,simple,,"Sinh tố bơ việt quất",1,0,,,,,,taxable,,1,,0,0,,,,,1,,,39000,"Sinh tố đặc biệt",,,,,,,,,,,,0
